Place,Name,BodyweightKg,Squat1Kg,Squat2Kg,Squat3Kg,Best3SquatKg,Bench1Kg,Bench2Kg,Bench3Kg,Best3BenchKg,Bench4Kg,Deadlift1Kg,Deadlift2Kg,Deadlift3Kg,Best3DeadliftKg,Deadlift4Kg,TotalKg,WeightClassKg,Sex,CyrillicName,BirthYear,Event,Equipment,Division
1,Vitaliy Matsak,51.7,192.5,197.5,-200,197.5,-122.5,-122.5,122.5,122.5,,150,-160,-160,150,,470,52,M,Віталій Мацак,1975,SBD,Single-ply,Open
2,Viktor Piskunov #1,52,170,-177.5,177.5,177.5,105.5,110,111,111,112.5,160,172.5,-192.5,172.5,,461,52,M,Віктор Піскунов,1981,SBD,Single-ply,Open
3,Yevgen Vyborov,52,165,-175,-175,165,90,97.5,102.5,102.5,,150,160,172.5,172.5,,440,52,M,Євген Виборов,1983,SBD,Single-ply,Open
4,Igor Kim,50.5,-150,-155,155,155,77.5,82.5,85,85,,150,160,165,165,,405,52,M,Ігор Кім,1985,SBD,Single-ply,Open
5,Igor Ilchenko,51.4,140,150,155,155,70,75,-80,75,,150,162.5,170,170,,400,52,M,Ігор Ільченко,1985,SBD,Single-ply,Open
DQ,Roman Gusak,50.6,-155,-160,-160,,,,,,,,,,,,,52,M,Роман Гусак,1986,SBD,Single-ply,Open
DQ,Oleksandr Sitnikov,51,110,120,125,125,-70,-70,-70,,,,,,,,,52,M,Олександр Ситніков,1987,SBD,Single-ply,Open
1,Sergiy Vatyuk,55.8,202.5,213,,213,145,153,,153,,200,207.5,215,215,,581,56,M,Сергій Ватюк,1962,SBD,Single-ply,Open
2,Yuriy Dosyuk,56,170,177.5,182.5,182.5,100,107.5,112.5,112.5,,180,192.5,205,205,,500,56,M,Юрій Досюк,1984,SBD,Single-ply,Open
3,Roman Chislov,55.2,-170,175,180,180,95,100,102.5,102.5,,170,187.5,-190,187.5,,470,56,M,Роман Числов,1978,SBD,Single-ply,Open
4,Oleksiy Udaltsov,55.9,160,180,-192.5,180,90,102.5,-105,102.5,,160,170,-175,170,,452.5,56,M,Олексій Удальцов,1981,SBD,Single-ply,Open
5,Mykola Rus,55.3,160,-175,-175,160,82.5,87.5,92.5,92.5,,180,185,-192.5,185,,437.5,56,M,Микола Рус,1985,SBD,Single-ply,Open
6,Valeriy Aliev,55.7,140,-150,150,150,90,-95,95,95,,170,177.5,180,180,,425,56,M,Валерій Алієв,1946,SBD,Single-ply,Open
7,Yuriy Sukhinin,56,-145,-150,150,150,-85,85,90,90,,160,180,-192.5,180,,420,56,M,Юрій Сухінін,1982,SBD,Single-ply,Open
8,Artem Zavadovskyy,56,-155,155,162.5,162.5,-90,90,-95,90,,150,160,162.5,162.5,,415,56,M,Артем Завадовський,1981,SBD,Single-ply,Open
9,Ruslan Borukh,55.9,140,-147.5,150,150,110,-115,115,115,,135,145,-155,145,,410,56,M,Руслан Борух,1971,SBD,Single-ply,Open
10,Anatoliy Muchichka,55.5,-135,135,150,150,82.5,87.5,90,90,,145,155,,155,,395,56,M,Анатолій Мучичка,1987,SBD,Single-ply,Open
1,Vitaliy Teteutsa,59.8,-225,225,-232.5,225,150,157.5,162.5,162.5,-165,-205,210,217.5,217.5,,605,60,M,Віталій Тетеуца,1967,SBD,Single-ply,Open
2,Volodymyr Pogrebniy,59.7,225,-235,-235,225,157.5,163,-170,163,,200,210,-222.5,210,,598,60,M,Володимир Погребний,1982,SBD,Single-ply,Open
3,Grigoriy Sarkisyan,60,205,215,220,220,115,-120,120,120,,230,235,-237.5,235,,575,60,M,Григорій Саркісян,1963,SBD,Single-ply,Open
4,Anatoliy Bochkovskyy,59.5,215,-225,-225,215,-115,115,-117.5,115,,-242.5,-242.5,242.5,242.5,,572.5,60,M,Анатолій Бочковський,1954,SBD,Single-ply,Open
5,Igor Yasenetskyy,59.7,190,205,-215,205,105,112.5,117.5,117.5,,190,205,-217.5,205,,527.5,60,M,Ігор Ясенецький,1966,SBD,Single-ply,Open
6,Arkadiy Shalokha,59.8,170,180,185,185,110,117.5,122.5,122.5,,190,202.5,210,210,,517.5,60,M,Аркадий Шалоха,1983,SBD,Single-ply,Open
7,Oleg Kurchenkov,59.4,-190,190,-200,190,100,-110,110,110,,190,200,-210,200,,500,60,M,Олег Курченков,1986,SBD,Single-ply,Open
8,Anton Karachentsev,59.2,180,-187.5,-187.5,180,92.5,-100,102.5,102.5,,205,215,-227.5,215,,497.5,60,M,Антон Караченцев,1983,SBD,Single-ply,Open
9,Mykola Dvornyk,59.6,175,182.5,-187.5,182.5,90,102.5,-112.5,102.5,,190,200,-207.5,200,,485,60,M,Микола Дворник,1984,SBD,Single-ply,Open
10,Kostyantyn Gavrik,59.9,175,-190,-190,175,-85,92.5,-100,92.5,,190,-210,210,210,,477.5,60,M,Костянтин Гаврик,1984,SBD,Single-ply,Open
DQ,Volodymyr Rysiev,60,-220,-220,-220,,,,,,,,,,,,,60,M,Володимир Рисєв,1982,SBD,Single-ply,Open
1,Oleksandr Borysov,67.3,245,-255,255,255,150,160,165,165,,255,262.5,270,270,,690,67.5,M,Олександр Борисов,1980,SBD,Single-ply,Open
2,Anatolii Goriachok,67.1,240,-245,-245,240,140,145,-150,145,,250,265,270,270,,655,67.5,M,Анатолий Горячок,1979,SBD,Single-ply,Open
3,Dmytro Ubeykon',67.5,235,-242.5,245,245,160,-162.5,-162.5,160,,-235,-235,235,235,,640,67.5,M,Дмитро Убейконь,1981,SBD,Single-ply,Open
4,Evgen Khoronzhevsky,67.4,245,250,-255,250,150,160,-166,160,,225,-235,-235,225,,635,67.5,M,Євген Хоронжевський,1983,SBD,Single-ply,Open
5,Valentin Malikov,67.1,-215,215,225,225,150,160,162.5,162.5,,220,240,-255,240,,627.5,67.5,M,Валентин Маліков,1974,SBD,Single-ply,Open
6,Vladislav Simchina,67.2,222.5,227.5,232.5,232.5,155,165.5,-167.5,165.5,,225,-237.5,-237.5,225,,623,67.5,M,Владислав Симчина,1984,SBD,Single-ply,Open
7,Stanislav Gibner,67.5,230,237.5,-242.5,237.5,122.5,127.5,132.5,132.5,,240,-250,-250,240,,610,67.5,M,Станіслав Гібнер,1979,SBD,Single-ply,Open
8,Yuriy Kidiba,67.4,235,-242.5,-242.5,235,120,130,137.5,137.5,,212.5,222.5,235,235,,607.5,67.5,M,Юрій Кидиба,1983,SBD,Single-ply,Open
9,Igor Maltsev #1,66.9,220,232.5,240,240,107.5,112.5,117.5,117.5,,210,222.5,232.5,232.5,,590,67.5,M,Ігор Мальцев,1980,SBD,Single-ply,Open
10,Mykola Golik,66.4,-210,210,-215,210,-122.5,122.5,127.5,127.5,,215,-232.5,-232.5,215,,552.5,67.5,M,Микола Голік,1981,SBD,Single-ply,Open
11,Vladimir Rudnichenko,67.3,-195,195,-210,195,-135,135,-140,135,,-200,-200,200,200,,530,67.5,M,Володимир Рудніченко,1973,SBD,Single-ply,Open
12,Andriy Nagirnyy,66.7,220,-240,240,240,-105,105,-112.5,105,,180,-200,,180,,525,67.5,M,Андрій Нагірний,1982,SBD,Single-ply,Open
13,Sergiy Kinash,66.9,175,-185,-185,175,105,110,112.5,112.5,,200,-210,215,215,,502.5,67.5,M,Сергій Кінаш,1984,SBD,Single-ply,Open
14,Sergiy Bilenko,64.7,140,-150,-150,140,75,80,85,85,,140,150,160,160,,385,67.5,M,Сергій Біленко,1986,SBD,Single-ply,Open
1,Oleksandr Kutcher,74.2,270,282.5,287.5,287.5,170,175,182.5,182.5,,270,280,-300,280,,750,75,M,Олександр Кутчер,1980,SBD,Single-ply,Open
2,Andriy Ivzhenko,75,290,-300,-300,290,160,167.5,172.5,172.5,,-260,260,270,270,,732.5,75,M,Андрій Івженко,1977,SBD,Single-ply,Open
3,Yevgen Bokiy,73.9,255,265,270,270,175,182.5,185,185,,235,245,255,255,,710,75,M,Євген Бокій,1976,SBD,Single-ply,Open
5,Volodymyr Narolskyy,74.6,260,-270,-270,260,-190,190,-200,190,,-245,-245,245,245,,695,75,M,,1977,SBD,Single-ply,Open
6,Kostyantyn Nazym,74.5,280,-290,-290,280,170,-180,-180,170,,220,-230,-230,220,,670,75,M,Костянтин Назим,1969,SBD,Single-ply,Open
7,Roman Akhlestin,74.6,-250,250,-260,250,-175,175,182.5,182.5,,220,232.5,-237.5,232.5,,665,75,M,Роман Ахлестін,1979,SBD,Single-ply,Open
8,Volodymyr Baklyak,74.8,250,-260,-260,250,-160,-160,160,160,,240,250,-257.5,250,,660,75,M,Володимир Бакляк,1977,SBD,Single-ply,Open
9,Vasyl' Khoroschak,73.9,-220,220,-230,220,160,170,-180,170,,235,250,-260,250,,640,75,M,Василь Хорощак,1975,SBD,Single-ply,Open
10,Anton Kuznetsov,74.5,240,250,260,260,150,160,-170,160,,210,220,-235,220,,640,75,M,Антон Кузнецов,1983,SBD,Single-ply,Open
11,Sergiy Mosyak,74.9,200,210,215,215,-150,150,-157.5,150,,260,270,275,275,,640,75,M,Сергій Мосяк,1980,SBD,Single-ply,Open
12,Nikolay Sanin,74.5,230,-250,-250,230,155,-165,-165,155,,240,250,-275,250,,635,75,M,Микола Санін,1983,SBD,Single-ply,Open
13,Sergiy Baburin,74.2,-250,-255,255,255,130,137.5,140,140,,210,230,-240,230,,625,75,M,Сергій Бабурін,1984,SBD,Single-ply,Open
14,Oleksiy Ivchenko,74.5,235,242.5,245,245,140,145,-150,145,,220,235,,235,,625,75,M,Олексій Івченко,1980,SBD,Single-ply,Open
15,Mykhaylo Kuz'ma,75,-222.5,232.5,240,240,125,132.5,137.5,137.5,,247.5,-257.5,-257.5,247.5,,625,75,M,Михайло Кузьма,1984,SBD,Single-ply,Open
16,Yuriy Tsiba,72.3,220,-227.5,,220,130,137.5,140,140,,250,260,-270,260,,620,75,M,Юрій Циба,1983,SBD,Single-ply,Open
17,Sergiy Taranov,70,220,230,235,235,120,-132.5,137.5,137.5,,220,235,242.5,242.5,,615,75,M,Сергій Таранов,1984,SBD,Single-ply,Open
18,Oleksandr Korotych,75,225,-230,-230,225,-140,140,-147.5,140,,230,-245,,230,,595,75,M,Олександр Коротич,1983,SBD,Single-ply,Open
19,Sergiy Trukhanskyy,74.8,-212.5,212.5,-220,212.5,-130,137.5,142.5,142.5,,215,-225,-225,215,,570,75,M,Сергій Труханський,1982,SBD,Single-ply,Open
20,Yuriy Tsivadits,74.9,-220,220,-240,220,130,-140,-140,130,,200,215,-230,215,,565,75,M,Юрій Цівадіц,1983,SBD,Single-ply,Open
21,Vadym Aliev,73.15,-200,200,-220,200,110,115,120,120,,215,225,235,235,,555,75,M,Вадим Алієв,1970,SBD,Single-ply,Open
22,Ivan Rybchak,73.8,210,-220,-220,210,120,125,-127.5,125,,210,-220,-225,210,,545,75,M,Іван Рибчак,1979,SBD,Single-ply,Open
23,Yaroslav Veligan,74.1,200,-215,-215,200,130,-135,-135,130,,200,-210,-210,200,,530,75,M,Ярослав Веліган,1983,SBD,Single-ply,Open
24,Gennadiy Grebennikov,74.7,180,-195,195,195,105,112.5,117.5,117.5,,190,202.5,-212.5,202.5,,515,75,M,Геннадій Гребенніков,1984,SBD,Single-ply,Open
25,Volodymyr Pogonets,73.9,175,185,-192.5,185,90,97.5,102.5,102.5,,200,215,225,225,,512.5,75,M,Володимир Погонець,1985,SBD,Single-ply,Open
DQ,Yuriy Pruzhanskyy,74.4,195,207.5,215,215,122.5,130,135,135,,-215,-215,-215,,,,75,M,Юрій Пружанський,1981,SBD,Single-ply,Open
DQ,Viktor Gutsenko,74.5,-220,-220,-220,,,,,,,,,,,,,75,M,Віктор Гуценко,1981,SBD,Single-ply,Open
DQ,Roman Kidiba,74.5,-230,-230,-230,,,,,,,,,,,,,75,M,Роман Кидиба,1980,SBD,Single-ply,Open
DQ,Anatoliy Cherepanov #1,74.5,-205,-205,,,,,,,,,,,,,,75,M,Анатолій Черепанов,1979,SBD,Single-ply,Open
DQ,Andriy Mirzoyan,75,-245,250,-255,250,-170,-175,-175,,,,,,,,,75,M,Андрій Мірзоян,1974,SBD,Single-ply,Open
DQ,Igor Kukharevych,75,-220,-240,-245,,170,180,-185,180,,-250,-250,-250,,,,75,M,Ігор Кухаревич,1975,SBD,Single-ply,Open
DQ,Mykhaylo Bulanyy,75,-295,-295,-295,,,,,,,,,,,,,75,M,Михайло Буланий,1975,SBD,Single-ply,Open
1,Dmytro Solovyov,82.25,-310,310,317.5,317.5,220,-230.5,-230.5,220,,295,307.5,317.5,317.5,,855,82.5,M,Дмитро Соловйов,1970,SBD,Single-ply,Open
2,Sergiy Naleykin,82.3,330,340,-350,340,205,212.5,215,215,,280,290,300,300,,855,82.5,M,Сергій Налейкін,1981,SBD,Single-ply,Open
3,Sergiy Pevnev,82.15,280,295,302.5,302.5,195,205,210,210,,280,290,-297.5,290,,802.5,82.5,M,Сергій Певнєв,1978,SBD,Single-ply,Open
4,Arkadiy Bukhtiychuk,82.45,310,-317.5,322.5,322.5,155,162.5,-167.5,162.5,,290,300,-310,300,,785,82.5,M,Аркадій Бухтійчук,1975,SBD,Single-ply,Open
5,Sergiy Grechkosiy,82.1,315,,,315,152.5,,,152.5,,292.5,,,292.5,,760,82.5,M,Сергій Гречкосій,1974,SBD,Single-ply,Open
6,Sergiy Skoryk,81.1,285,-292.5,-292.5,285,182.5,192.5,-197.5,192.5,,270,-277.5,,270,,747.5,82.5,M,Сергій Скорик,1970,SBD,Single-ply,Open
7,Vadym Mokhnyk,81.95,285,,,285,190,,,190,,270,,,270,,745,82.5,M,Вадим Мохник,1980,SBD,Single-ply,Open
8,Volodymyr Oliyarnyk,82,270,290,300,300,150,160,-165,160,,260,275,285,285,,745,82.5,M,Володимир Оліярник,1983,SBD,Single-ply,Open
9,Oleksiy Kryvoshey,82.1,275,-300,-305,275,150,160,167.5,167.5,,275,295,-300,295,,737.5,82.5,M,Олексій Кривошей,1983,SBD,Single-ply,Open
10,Oleg Semenov,82.5,280,-292.5,292.5,292.5,140,150,155,155,,260,282.5,-297.5,282.5,,730,82.5,M,Олег Семенов,1972,SBD,Single-ply,Open
11,Yuriy Zverev,82.4,250,270,-280,270,155,-165,-165,155,,260,280,290,290,,715,82.5,M,Юрій Звєрєв,1979,SBD,Single-ply,Open
12,Volodymyr Levchuk,81.8,250,260,-270,260,200,207.5,-210,207.5,,230,245,-255,245,,712.5,82.5,M,Володимир Левчук,1979,SBD,Single-ply,Open
13,Dmytro Lebedev,82.5,260,-270,275,275,140,-145,-145,140,,250,265,280,280,,695,82.5,M,Дмитро Лебедєв,1983,SBD,Single-ply,Open
14,Dmytro Glek,82,250,260,270,270,160,-170,170,170,,250,-260,-260,250,,690,82.5,M,Дмитро Глек,1981,SBD,Single-ply,Open
15,Oleksiy Soshnikov,82,260,-280,-280,260,160,170,-175,170,,260,-270,-270,260,,690,82.5,M,Олексій Сошніков,1977,SBD,Single-ply,Open
16,Gennadiy Kapshuk,80.6,250,260,265,265,145,152.5,-155,152.5,,260,-275,-280,260,,677.5,82.5,M,Геннадій Капшук,1974,SBD,Single-ply,Open
17,Maksim Bezklinskiy,79.75,235,245,-252.5,245,155,160,-165,160,,250,260,265,265,,670,82.5,M,Максим Безклинський,1980,SBD,Single-ply,Open
18,Vladyslav Olkhovskyy,82.1,240,255,262.5,262.5,140,-147.5,-147.5,140,,250,262.5,-270,262.5,,665,82.5,M,Владислав Ольховський,1980,SBD,Single-ply,Open
19,Andriy Turunov,82.35,240,-250,-250,240,160,-170,170,170,,240,255,-260,255,,665,82.5,M,Андрій Турунов,1977,SBD,Single-ply,Open
20,Andrey Lyutik,77.4,240,,,240,142.5,152.5,155,155,,240,255,265,265,,660,82.5,M,Андрій Лютік,1982,SBD,Single-ply,Open
21,Taras Kukhta,82.4,-270,-270,270,270,145,-152.5,-152.5,145,,235,-250,-250,235,,650,82.5,M,Тарас Кухта,1980,SBD,Single-ply,Open
22,Andriy Suslov,82.5,250,260,-265,260,150,157.5,160,160,,-220,220,-245,220,,640,82.5,M,Андрій Суслов,1980,SBD,Single-ply,Open
23,Roman Struzhko,81.95,230,240,-245,240,125,-130,,125,,230,240,250,250,,615,82.5,M,Роман Стружко,1971,SBD,Single-ply,Open
24,Viktor Muderevich,82,215,-230,-230,215,-115,115,130,130,,260,-270,,260,,605,82.5,M,Віктор Мудеревич,1983,SBD,Single-ply,Open
25,Aleksandr Furman,78.6,230,-250,-250,230,130,-140,-140,130,,225,-235,,225,,585,82.5,M,Олександр Фурман,1981,SBD,Single-ply,Open
26,Aleksandr Boboshko,81.7,190,210,215,215,100,110,-115,110,,225,240,,240,,565,82.5,M,Александр Бобошко,1984,SBD,Single-ply,Open
27,Dmytro Gorozheev,81.2,195,202.5,207.5,207.5,100,107.5,112.5,112.5,,195,205,210,210,,530,82.5,M,Дмитро Горожеєв,1980,SBD,Single-ply,Open
28,Oleksandr Leshukov,82.3,190,205,-210,205,95,102.5,-107.5,102.5,,210,-225,-225,210,,517.5,82.5,M,Олександр Лешуков,1968,SBD,Single-ply,Open
1,Ivan Freydun,90,-330,330,-340,330,230,240,-245,240,,310,327.5,-335,327.5,,897.5,90,M,Іван Фрейдун,1981,SBD,Single-ply,Open
2,Sergiy Romanenko,90,340,360,,360,200,210,-215,210,,310,325,-332.5,325,,895,90,M,Сергій Романенко,1972,SBD,Single-ply,Open
3,Olexiy Nazarenko,89.8,320,330,-337.5,330,17,180,185,185,,310,330,341,341,-347.5,856,90,M,Олексій Назаренко,1977,SBD,Single-ply,Open
4,Mykhaylo Artsymovych,89.4,310,-320,-320,310,180,190,-200,190,,300,-315,315,315,,815,90,M,Михайло Арцимович,1982,SBD,Single-ply,Open
5,Khvicha Khasaya,89.9,-270,270,-280,270,200,207.5,-210,207.5,,270,285,300,300,,777.5,90,M,Хвіча Хасая,1966,SBD,Single-ply,Open
6,Maksim Malyarov,88.7,270,290,-310,290,172.5,-185,195,195,,250,-280,-305,250,,735,90,M,Максим Маляров,1977,SBD,Single-ply,Open
7,Oleksiy Stogniy,89.6,-280,280,-285,280,160,170,-175,170,,260,280,-290,280,,730,90,M,Олексій Стогній,1978,SBD,Single-ply,Open
8,Vladyslav Dzisyak,88,-245,245,260,260,162.5,170,175,175,,270,280,290,290,,725,90,M,Владислав Дзисяк,1968,SBD,Single-ply,Open
9,V'yacheslav Kravchenko #1,89.5,-270,270,-280,270,150,160,165,165,,270,280,-290,280,,715,90,M,Вячеслав Кравченко,1969,SBD,Single-ply,Open
10,Volodymyr Yakymenko,89.7,255,265,-270,265,160,170,175,175,,250,265,275,275,,715,90,M,Володимир Якименко,1977,SBD,Single-ply,Open
11,Dmytro Rudnytskyy,88.3,255,265,-270,265,160,-170,170,170,,260,270,-275,270,,705,90,M,Дмитро Рудницький,1978,SBD,Single-ply,Open
12,Ivan Pasha,88.9,-280,-280,290,290,150,160,-165,160,,240,255,-260,255,,705,90,M,Іван Паша,1984,SBD,Single-ply,Open
13,Volodymyr Pluzhnik,89.9,240,250,-255,250,-160,-160,160,160,,260,-280,,260,,670,90,M,Володимир Плужнік,1981,SBD,Single-ply,Open
14,Denis Kavun,90,250,260,-265,260,145,152.5,160,160,,220,230,-240,230,,650,90,M,Денис Кавун,1983,SBD,Single-ply,Open
15,Mykhaylo Stadnyk,88.1,220,-230,-230,220,130,-140,140,140,,230,240,-250,240,,600,90,M,Михайло Стадник,1982,SBD,Single-ply,Open
16,Dmytro Derevyanko,86.4,205,-215,215,215,115,122.5,125,125,,205,217.5,-220,217.5,,557.5,90,M,Дмитро Дерев'янко,1984,SBD,Single-ply,Open
DQ,Maksym Logosha,89.3,250,262.5,-270,262.5,160,167.5,-172.5,167.5,,-265,-265,-265,,,,90,M,Максим Логоша,1981,SBD,Single-ply,Open
DQ,Kostyantyn Scherbakov,88.7,300,-320,-320,300,-195,-200,-200,,,,,,,,,90,M,Костянтин Щербаков,1978,SBD,Single-ply,Open
DQ,Andriy Kovalchuk,90,300,-310,310,310,190,-200,-200,190,,-265,,,,,,90,M,Андрій Ковальчук,1975,SBD,Single-ply,Open
DQ,Yuriy Peyko,90,-290,-290,-290,,,,,,,,,,,,,90,M,Юрій Пейко,1978,SBD,Single-ply,Open
DQ,Oleksandr Brykin,89.9,260,-280,280,280,-160,-160,-160,,,,,,,,,90,M,Олександр Брикін,1983,SBD,Single-ply,Open
1,Oleksiy Vyshnytskyy,97.2,360,,,360,190,195,-200,195,,360,370,-375.5,370,,925,100,M,Олексій Вишницький,1981,SBD,Single-ply,Open
2,Artem Mironenko,99.95,320,330,340,340,190,200,210,210,,330,350,-360,350,,900,100,M,Артем Мироненко,1982,SBD,Single-ply,Open
3,Vitaliy Stretovich,99.5,310,-320,-320,310,210,217.5,222.5,222.5,,300,312.5,317.5,317.5,,850,100,M,Віталій Стретович,1981,SBD,Single-ply,Open
4,Oleksandr Bashkatov,96.3,300,315,325,325,-190,195,200,200,,290,300,307.5,307.5,,832.5,100,M,Олександр Башкатов,1982,SBD,Single-ply,Open
5,Orest Tryfanenko,98.4,290,310,-325,310,-175,180,-190,180,,300,-307.5,,300,,790,100,M,Орест Трифаненко,1975,SBD,Single-ply,Open
6,Ivan Drogobetskyy,99.2,270,285,-300,285,185,-200,-200,185,,290,305,-312.5,305,,775,100,M,Іван Дрогобецький,1962,SBD,Single-ply,Open
7,Oleg Kovalenko,99.3,270,-280,280,280,170,180,187.5,187.5,,292.5,300,-305,300,,767.5,100,M,Олег Коваленко,1975,SBD,Single-ply,Open
8,Yevgen Konstantinov,99.7,280,-290,292.5,292.5,177.5,185,187.5,187.5,,265,282.5,,282.5,,762.5,100,M,Євген Константинов,1977,SBD,Single-ply,Open
9,Sergiy Koshel',100,295,-302.5,-302.5,295,185,-192.5,-192.5,185,,260,282.5,-290,282.5,,762.5,100,M,Сергій Кошель,1978,SBD,Single-ply,Open
10,Dmytro Sydorenko,96.8,260,280,-295,280,175,185,192.5,192.5,,270,282.5,-292.5,282.5,,755,100,M,Дмитро Сидоренко,1976,SBD,Single-ply,Open
11,Anatoliy Baklazhko,98.9,245,257.5,265,265,225,235,-240,235,,-247.5,247.5,255,255,,755,100,M,Анатолій Баклажко,1972,SBD,Single-ply,Open
12,Valeriy Karpov #1,97.05,280,300,-307.5,300,-165,165,172.5,172.5,,250,265,275,275,,747.5,100,M,Валерій Карпов,1984,SBD,Single-ply,Open
13,Mykola Koltakov,98.65,250,270,275,275,172.5,182.5,-187.5,182.5,,250,-290,-290,250,,707.5,100,M,Микола Колтаков,1983,SBD,Single-ply,Open
14,Viktor Parkhomenko,98.9,270,-290,-290,270,170,-180,-180,170,,250,260,-270,260,,700,100,M,Віктор Пархоменко,1964,SBD,Single-ply,Open
15,Mykola Sikachina,99.1,240,-252.5,-252.5,240,160,167.5,-172.5,167.5,,280,290,-295,290,,697.5,100,M,Микола Сікачина,1980,SBD,Single-ply,Open
16,Ivan Sava,95.7,200,210,220,220,160,170,-175,170,,230,240,-250,240,,630,100,M,Іван Сава,1978,SBD,Single-ply,Open
17,Ivan Slizhuk,93.4,210,220,-230,220,150,-160,160,160,,-225,225,240,240,,620,100,M,Іван Слижук,1980,SBD,Single-ply,Open
DQ,Andriy Romanchuk,95.7,-315,315,-322.5,315,170,182.5,190,190,,-305,-305,-305,,,,100,M,Андрій Романчук,1976,SBD,Single-ply,Open
DQ,Yaroslav Sidorenko,97.9,-240,-240,-240,,,,,,,,,,,,,100,M,Ярослав Сидоренко,1977,SBD,Single-ply,Open
DQ,Yuriy Butov,99,-260,-260,-270,,,,,,,,,,,,,100,M,Юрій Бутов,1976,SBD,Single-ply,Open
DQ,Sergiy Gor'kov,98.8,-260,-260,-260,,,,,,,,,,,,,100,M,Сергій Горьков,1983,SBD,Single-ply,Open
1,Oleksiy Solovyov,109.1,370,-380,380,380,250,260,270,270,,330,342.5,355,355,,1005,110,M,Олексій Соловйов,1975,SBD,Single-ply,Open
2,Roman Voroshylin,109.2,350,-365,-365,350,200,207.5,-212.5,207.5,,320,342.5,360,360,-365,917.5,110,M,Роман Ворошилін,1983,SBD,Single-ply,Open
3,Ildar Zakirov,106.3,370,-377.5,-377.5,370,190,197.5,202.5,202.5,,325,335,342.5,342.5,,915,110,M,Ільдар Закіров,1976,SBD,Single-ply,Open
4,Sergey Makrushyn,105.3,300,,,300,-230,240,250,250,,300,330,,330,,880,110,M,Сергій Макрушин,1975,SBD,Single-ply,Open
5,Mykhaylo Paller,110,-320,-335,335,335,210,225,232.5,232.5,,260,285,-295,285,,852.5,110,M,Михайло Паллер,1980,SBD,Single-ply,Open
6,Oleksandr Filatov,106.1,285,300,310,310,195,210,215,215,,285,300,-310,300,,825,110,M,Олександр Філатов,1977,SBD,Single-ply,Open
7,Gennadiy Danilov #3,110,-315,315,320,320,185,190,-195,190,,285,292.5,300,300,,810,110,M,Геннадій Данилов,1974,SBD,Single-ply,Open
8,Sergiy Konyushok,104.6,300,310,315,315,180,190,197.5,197.5,,265,287.5,-305,287.5,,800,110,M,Сергій Конюшок,1983,SBD,Single-ply,Open
9,Viktor Rekun,106,280,290,300,300,180,195,205,205,,260,270,,270,,775,110,M,Віктор Рекун,1974,SBD,Single-ply,Open
10,Sergey Petrov,108.7,300,320,325,325,-160,160,167.5,167.5,,260,272.5,280,280,,772.5,110,M,Сергей Петров,1979,SBD,Single-ply,Open
11,Dzhonni Mkhitoryan,102.9,295,-300,,295,195,200,205,205,,265,270,,270,,770,110,M,Джонні Мхіторян,1979,SBD,Single-ply,Open
12,Oleg Piven,108.2,240,-255,255,255,175,-180,-180,175,,300,320,-335,320,,750,110,M,Олег Півень,1980,SBD,Single-ply,Open
13,Mykola Sokolov,101.5,260,275,285,285,180,190,-200,190,,250,-260,-260,250,,725,110,M,Микола Соколов,1979,SBD,Single-ply,Open
14,Kostyantyn Gensirovskyy,109.7,-240,-250,250,250,150,160,-170,160,,250,265,275,275,,685,110,M,Костянтин Генсіровський,1977,SBD,Single-ply,Open
15,Vitaliy Bobchenko,109.1,230,250,-255,250,160,170,180,180,,220,230,240,240,,670,110,M,Віталій Бобченко,1979,SBD,Single-ply,Open
DQ,Stepan Nikolyukin,109,-275,-275,-275,,,,,,,,,,,,,110,M,Степан Ніколюкін,1977,SBD,Single-ply,Open
1,Viktor Karpik,119.7,-400,400,-415,400,230,240,247.5,247.5,,330,352.5,362.5,362.5,-371,1010,125,M,Віктор Карпік,1978,SBD,Single-ply,Open
2,Sergiy Karnaukhov #1,118.8,-330,350,380,380,210,-220,220,220,,320,-340,355,355,-371,955,125,M,Сергій Карнаухов,1978,SBD,Single-ply,Open
3,Yevgen Yarymbash,118,355,-365,365,365,245,252.5,257.5,257.5,,310,322.5,330,330,,952.5,125,M,Євген Яримбаш,1983,SBD,Single-ply,Open
4,Viktor Yurchenko #1,119.5,350,-365,-365,350,215,225,-230,225,,315,-330,-332.5,315,,890,125,M,Віктор Юрченко,1980,SBD,Single-ply,Open
5,Oleksandr Pronin,121.15,300,320,-330,320,220,230,-240,230,,300,330,,330,,880,125,M,Олександр Пронін,1978,SBD,Single-ply,Open
6,Oleksandr Volosovets,118.1,320,330,-332.5,330,200,210,212.5,212.5,,315,327.5,-337.5,327.5,,870,125,M,Олександр Волосовець,1979,SBD,Single-ply,Open
7,Karen Stepanyan,119.1,335,-345,-350,335,225,-235,235,235,,290,-310,-310,290,,860,125,M,Карен Степанян,1976,SBD,Single-ply,Open
8,Valeriy Kotlyar,119,310,315,,315,215,225,230,230,,260,275,280,280,,825,125,M,Валерій Котляр,1973,SBD,Single-ply,Open
9,Oleksandr Shtundak,118.75,300,320,330,330,180,190,200,200,,270,285,-290,285,,815,125,M,Олександр Штундак,1975,SBD,Single-ply,Open
10,Denys Sofroniy,119.9,280,300,310,310,160,-170,170,170,,285,305,315,315,,795,125,M,Денис Софроній,1979,SBD,Single-ply,Open
11,Mykola Mekh,119.6,280,290,295,295,205,215,-220,215,,260,275,,275,,785,125,M,Микола Мех,1950,SBD,Single-ply,Open
12,Sergiy Romanchuk,120.5,-280,290,-300,290,180,185,-190,185,,290,310,-320,310,,785,125,M,Сергій Романчук,1982,SBD,Single-ply,Open
13,Maksim Abramchenko,116.45,-300,300,-310,300,-200,-200,200,200,,250,-270,270,270,,770,125,M,Максим Абрамченко,1977,SBD,Single-ply,Open
14,Petro Lukyanov,117.8,270,280,-290,280,170,180,-190,180,,270,280,-290,280,,740,125,M,Петро Лук'янов,1978,SBD,Single-ply,Open
15,Yevgen Prozor,113.5,220,240,255,255,-170,-170,170,170,,270,290,-310,290,,715,125,M,Євген Прозор,1969,SBD,Single-ply,Open
DQ,Vladislav Zonenko,114.5,230,242.5,252.5,252.5,-170,172.5,177.5,177.5,,-240,-240,-240,,,,125,M,Владислав Зоненко,1975,SBD,Single-ply,Open
DQ,Vadym Patana,124.2,320,330,-340,330,220,227.5,-235,227.5,,-322.5,-322.5,-322.5,,,,125,M,Вадим Патана,1976,SBD,Single-ply,Open
1,Volodymyr Muravlyov,126,380,400,-410,400,250,262.5,267.5,267.5,,-340,340,355,355,,1022.5,125+,M,Володимир Муравльов,1975,SBD,Single-ply,Open
2,Vasyl' Orobets,181.6,390,410,420,420,220,227.5,-235,227.5,,330,355,-377.5,355,,1002.5,125+,M,Василь Оробець,1966,SBD,Single-ply,Open
3,Yuriy Spinov,137.2,-400,-400,400,400,175,185,-190,185,,350,370,380,380,,965,125+,M,Юрій Спінов,1962,SBD,Single-ply,Open
4,Oleg Bilichenko,131.5,340,350,355,355,-195,195,205,205,,310,320,-325,320,,880,125+,M,Олег Біліченко,1980,SBD,Single-ply,Open
5,Vasyl Mezerya,125.6,300,320,330,330,190,200,-210,200,,300,320,-325,320,,850,125+,M,Василь Мезеря,1978,SBD,Single-ply,Open
6,Yuriy Kolesnykov,172,310,332.5,340,340,200,215,220,220,,260,280,-287.5,280,,840,125+,M,Юрій Колесников,1984,SBD,Single-ply,Open
7,Sergiy Gruzin,144,280,300,320,320,200,215,222.5,222.5,,270,,,270,,812.5,125+,M,Сергій Грузин,1981,SBD,Single-ply,Open
8,Oleksandr Zhirikov,142.7,280,-300,-300,280,160,170,177.5,177.5,,260,275,285,285,,742.5,125+,M,Олександр Жиріков,1983,SBD,Single-ply,Open
1,Iryna Trubilina,44,120,-130,-130,120,57.5,62.5,65,65,,130,140,150,150,-155,335,44,F,Ірина Трубіліна,1983,SBD,Single-ply,Open
2,Oxana Rozmaritsa,44,85,92.5,-100,92.5,47.5,52.5,55,55,,90,97.5,102.5,102.5,,250,44,F,Оксана Розмаріца,1971,SBD,Single-ply,Open
3,Lyudmyla Simko,43.9,80,-90,90,90,35,37.5,40,40,,90,95,-102.5,95,,225,44,F,Людмила Сімко,1988,SBD,Single-ply,Open
4,Anna Fedyaeva,43.7,70,80,-90,80,-30,30,32.5,32.5,,80,90,97.5,97.5,,210,44,F,Анна Федяєва,1984,SBD,Single-ply,Open
5,Lesya Berezhna,44,67.5,72.5,-75,72.5,-25,25,-27.5,25,,75,-87.5,,75,,172.5,44,F,Леся Бережна,1984,SBD,Single-ply,Open
DQ,Yuliya Karaseva,42.9,-70,-70,-70,,,,,,,,,,,,,44,F,Юлія Карасьова,1981,SBD,Single-ply,Open
1,Olena Sychanina,47.8,130,140,-145,140,80,85,-87.5,85,,145,155,160,160,-162.5,385,48,F,Олена Сичаніна,1979,SBD,Single-ply,Open
2,Oksana Dmytruk,47.6,140,145,150.5,150.5,75,80,82.5,82.5,,140,147.5,-150,147.5,,380.5,48,F,Оксана Дмитрук,1983,SBD,Single-ply,Open
3,Tetyana Grytsenko,47.05,90,95,100,100,45,-47.5,47.5,47.5,,115,122.5,132.5,132.5,,280,48,F,Тетяна Гриценко,1983,SBD,Single-ply,Open
4,Gabriela Znik,45.6,-90,-90,90,90,45,-47.5,-50,45,,110,-115,-115,110,,245,48,F,Габріела Знік,1983,SBD,Single-ply,Open
5,Anna Kostreba,48,75,85,92.5,92.5,40,50,-52.5,50,,90,100,-110,100,,242.5,48,F,Анна Костреба,1988,SBD,Single-ply,Open
1,Olena Dmytruk,50.4,145,152.5,160,160,80,85,87.5,87.5,,140,-150,-152.5,140,,387.5,52,F,Олена Дмитрук,1983,SBD,Single-ply,Open
2,Taisiya Kuznetsova,51.7,130,137.5,-142.5,137.5,70,75,77.5,77.5,,125,135,140,140,,355,52,F,Таїсія Кузнецова,1986,SBD,Single-ply,Open
3,Lyudmyla Mykolenko,51,140,145,-147.5,145,72.5,-75,-75,72.5,,120,130,135,135,,352.5,52,F,Людмила Миколенко,1975,SBD,Single-ply,Open
4,Oksana Vinnichenko,51.3,130,-140,-140,130,60,-65,65,65,,140,152.5,-160,152.5,,347.5,52,F,Оксана Вінниченко,1984,SBD,Single-ply,Open
5,Maryana Plaksyva,51.6,-140,-147.5,147.5,147.5,60,65,-70,65,,125,130,-137.5,130,,342.5,52,F,Мар'яна Плаксива,1987,SBD,Single-ply,Open
6,Evgeniya Arkhypenko,52,120,127.5,-130,127.5,67.5,72.5,-77.5,72.5,,130,-140,140,140,,340,52,F,Євгенія Архипенко,1983,SBD,Single-ply,Open
7,Natalya Shamko,51.6,120,-130,-130,120,57.5,62.5,-65,62.5,,110,120,-125,120,,302.5,52,F,Наталья Шамко,1977,SBD,Single-ply,Open
8,Olena Melnikova,51.8,100,110,-120,110,-65,65,70,70,,110,120,-130,120,,300,52,F,Олена Мельникова,1985,SBD,Single-ply,Open
9,Taisiya Gladchenko,51.6,-95,95,105,105,45,52.5,57.5,57.5,,115,125,130,130,,292.5,52,F,Таїсія Гладченко,1986,SBD,Single-ply,Open
10,Olesya Osadchaya,52,100,110,112.5,112.5,40,45,50,50,,110,-125,125,125,,287.5,52,F,Олеся Осадчая,1982,SBD,Single-ply,Open
11,Galyna Kurdyukova,51.4,-90,-97.5,102.5,102.5,45,50,55,55,,-90,110,120,120,,277.5,52,F,Галина Курдюкова,1964,SBD,Single-ply,Open
12,Inga Dzgoeva,51.8,100,107.5,-110,107.5,-45,45,47.5,47.5,,110,120,-132.5,120,,275,52,F,Інга Дзгоєва,1984,SBD,Single-ply,Open
13,Olga Petropavlova,51.1,85,95,102.5,102.5,40,42.5,-45,42.5,,115,125,-130,125,,270,52,F,Ольга Петропавлова,1962,SBD,Single-ply,Open
1,Viktoriya Abdulina,55.1,175,-185,185,185,95,100,102.5,102.5,,175,-182.5,-182.5,175,,462.5,56,F,Вікторія Абдуліна,1967,SBD,Single-ply,Open
2,Tetyana Prymenchuk,55.5,160,170,-180,170,100,106,110,110,,160,167.5,-182.5,167.5,,447.5,56,F,Тетяна Применчук,1972,SBD,Single-ply,Open
3,Mariya Chepil,55.95,150,160,167.5,167.5,-92.5,92.5,100,100,,160,170,-175.5,170,,437.5,56,F,Марія Чепіль,1970,SBD,Single-ply,Open
4,Kateryna Klymenko,55.7,140,150,-160,150,92.5,97.5,100,100,,140,150,-157.5,150,,400,56,F,Катерина Клименко,1985,SBD,Single-ply,Open
5,Olena Kotendzhi,55.9,145,152.5,157.5,157.5,85,90,92.5,92.5,,142.5,150,-155,150,,400,56,F,Олена Котенджи,1986,SBD,Single-ply,Open
6,Anna Sinelnikova,56,135,145,-150,145,90,95,-97.5,95,,145,-155,155,155,,395,56,F,Анна Синельникова,1984,SBD,Single-ply,Open
7,Nigar Mekhtieva,55.9,140,-150,150,150,75,80,-82.5,80,,140,150,-160,150,,380,56,F,Нігар Мехтієва,1984,SBD,Single-ply,Open
8,Lyudmyla Rossol,55.7,135,-145,-145,135,80,-85,85,85,,145,155,-160,155,,375,56,F,Людмила Россол,1975,SBD,Single-ply,Open
9,Oxana Guruleva,56,130,140,-145,140,70,75,-80,75,,130,140,150,150,,365,56,F,Оксана Гурульова,1980,SBD,Single-ply,Open
10,Irina Kotendzhi,55.8,130,-137.5,-137.5,130,70,-75,75,75,,115,130,-140,130,,335,56,F,Ірина Котенджи,1985,SBD,Single-ply,Open
11,Tetyana Kalugina,56,135,-142.5,-150,135,60,65,-70,65,,125,132.5,135,135,,335,56,F,Тетяна Калугіна,1980,SBD,Single-ply,Open
12,Yelyzaveta Nazina,56,115,125,132.5,132.5,57.5,62.5,-67.5,62.5,,115,125,-130,125,,320,56,F,Єлізавета Назіна,1988,SBD,Single-ply,Open
13,Kateryna Boloshenko,53.9,110,120,125,125,50,55,-57.5,55,,120,-127.5,-127.5,120,,300,56,F,Катерина Болошенко,1982,SBD,Single-ply,Open
14,Yuliya Kutsenko,56,105,-112.5,112.5,112.5,60,67.5,-70,67.5,,105,120,-130,120,,300,56,F,Юлія Куценко,1983,SBD,Single-ply,Open
15,Viktoriya Zelenyuk,55.2,-110,-110,110,110,60,-65,-65,60,,115,-130,-140,115,,285,56,F,Вікторія Зеленюк,,SBD,Single-ply,Open
16,Olga Chernyshova,54.9,-90,90,100,100,45,-50,50,50,,90,-100,,90,,240,56,F,Ольга Чернишова,1982,SBD,Single-ply,Open
1,Svitlana Poplavska,59.75,170,180,190,190,95,102.5,110,110,,170,182.5,200,200,,500,60,F,Світлана Поплавська,1966,SBD,Single-ply,Open
2,Tetyana Skrypka,59.6,160,-170,170,170,92.5,-97.5,97.5,97.5,,162.5,172.5,-175,172.5,,440,60,F,Тетяна Скрипка,1987,SBD,Single-ply,Open
3,Natalya Zinchuk,59.7,135,142.5,-147.5,142.5,75,80,82.5,82.5,,-165,165,-175,165,,390,60,F,Наталя Зінчук,1980,SBD,Single-ply,Open
4,Nina Savelyeva,59.7,135,145,-150,145,-87.5,87.5,92.5,92.5,,135,145,152.5,152.5,,390,60,F,Ніна Савельєва,1973,SBD,Single-ply,Open
5,Natalya Burlachuk,59.8,130,140,145,145,-75,75,77.5,77.5,,150,-167.5,-167.5,150,,372.5,60,F,Натапя Бурлачук,1981,SBD,Single-ply,Open
6,Lyudmyla Kulikova,59.2,140,-150,-150,140,75,80,-85,80,,145,-150,-150,145,,365,60,F,Людмила Кулікова,1978,SBD,Single-ply,Open
7,Yuliya Valesyuk,59,130,-140,-140,130,80,-90,-90,80,,115,130,-135,130,,340,60,F,Юлія Валесюк,1982,SBD,Single-ply,Open
8,Inga Zhdanova,58.8,130,-140,-140,130,-65,65,,65,,130,135,142.5,142.5,,337.5,60,F,Інга Жданова,1971,SBD,Single-ply,Open
9,Tetyana Vavzhytska,59.5,120,-127.5,-127.5,120,-80,80,82.5,82.5,,130,135,-140,135,,337.5,60,F,Тетяна Вавжицька,1983,SBD,Single-ply,Open
10,Svitlana Pilipchuk,60,-120,120,125,125,-50,50,55,55,,112.5,120,,120,,300,60,F,Світлана Пилипчук,1986,SBD,Single-ply,Open
DQ,Lyudmila Yaroshenko,57.6,-120,-120,-120,,,,,,,,,,,,,60,F,Людмила Ярошенко,1974,SBD,Single-ply,Open
DQ,Mariya Yermolenko,59.9,-100,100,110,110,55,60,62.5,62.5,,-130,-130,-130,,,,60,F,Марія Єрмоленко,1982,SBD,Single-ply,Open
1,Lesya Guminska,67.1,225,235,-240,235,-120,120,127.5,127.5,,210,225,237.5,237.5,,600,67.5,F,Леся Гуминська,1980,SBD,Single-ply,Open
2,Zhanna Ivanova #1,65.9,205,215,220,220,105,112.5,-115,112.5,,200,-205,207.5,207.5,,540,67.5,F,Жанна Іванова,1984,SBD,Single-ply,Open
3,Anastasiya Balashenko,67.3,-180,180,-195,180,100,-105,105,105,,180,190,,190,,475,67.5,F,Анастасия Балашенко,1986,SBD,Single-ply,Open
4,Anna Suslova,67.1,140,150,-157.5,150,95,100,105,105,,145,155,162.5,162.5,,417.5,67.5,F,Анна Суслова,1983,SBD,Single-ply,Open
5,Nadiya Petrovska,64.1,150,-160,-160,150,95,102.5,107.5,107.5,,150,155,157.5,157.5,,415,67.5,F,Надія Петровська,1986,SBD,Single-ply,Open
6,Tetyana Malukha,67.5,145,150,155,155,85,-92.5,92.5,92.5,,150,155,160,160,,407.5,67.5,F,Тетяна Малуха,1966,SBD,Single-ply,Open
7,Liliya Pshegorska,67.4,140,-150,-155,140,90,-97.5,-97.5,90,,150,160,170,170,,400,67.5,F,Лілія Пшегорська,1981,SBD,Single-ply,Open
8,Olga Kovaleva #1,66.6,-127.5,127.5,135,135,67.5,72.5,75,75,,140,-150,150,150,,360,67.5,F,Ольга Ковальова,1984,SBD,Single-ply,Open
9,Mariya Gerula,64.5,130,-140,140,140,62.5,67.5,70,70,,130,-140,145,145,,355,67.5,F,Марія Герула,1984,SBD,Single-ply,Open
10,Andrea Sukhanych,66.5,135,-145,-145,135,67.5,72.5,77.5,77.5,,125,132.5,142.5,142.5,,355,67.5,F,Андреа Суханич,1973,SBD,Single-ply,Open
11,Inna Borsalo,67.1,130,-135,-135,130,65,-70,70,70,,-145,145,155,155,,355,67.5,F,Інна Борсало,1986,SBD,Single-ply,Open
12,Liliya Panchenko,66.3,-130,-137.5,137.5,137.5,67.5,-72.5,72.5,72.5,,135,-145,-145,135,,345,67.5,F,Лілія Панченко,1975,SBD,Single-ply,Open
13,Yulia Goryachun,64.6,115,130,140,140,50,-55,55,55,,135,-150,-150,135,,330,67.5,F,Юлія Горячун,1983,SBD,Single-ply,Open
1,Tamara Bagriy,74.8,210,217.5,222.5,222.5,130,138,140,140,,220,230,237.5,237.5,,600,75,F,Тамара Багрій,1974,SBD,Single-ply,Open
2,Lyudmyla Tselenko,73.4,210,-225,225,225,115,122.5,127.5,127.5,,205,212.5,227.5,227.5,,580,75,F,Людмила Целенко,1986,SBD,Single-ply,Open
3,Larysa Ivanova,75,230,240,-247.5,240,127.5,-135,-135,127.5,,205,-212.5,212.5,212.5,,580,75,F,Лариса Іванова,1963,SBD,Single-ply,Open
4,Nina Toropovska,75,205,-215,220,220,112.5,120,-125,120,,-200,200,-210,200,,540,75,F,Ніна Тороповська,1981,SBD,Single-ply,Open
5,Svitlana Nurmetova,74,170,180,190,190,105,115,120,120,,175,185,195,195,,505,75,F,Світлана Нурметова,1971,SBD,Single-ply,Open
6,Oleksandra Tatynets,73.5,140,150,-157.5,150,65,-70,-70,65,,160,170,180,180,,395,75,F,Олександра Татинець,1983,SBD,Single-ply,Open
7,Ruslana Krivinets,73.6,150,162.5,167.5,167.5,55,62.5,-65,62.5,,140,152.5,157.5,157.5,,387.5,75,F,Руслана Кривинець,1983,SBD,Single-ply,Open
8,Alina Petrosova,70.4,-155,-160,160,160,70,77.5,82.5,82.5,,120,132.5,-142.5,132.5,,375,75,F,Аліна Петросова,1983,SBD,Single-ply,Open
1,Victoria Posmitna,79.5,225,235,245.5,245.5,120,130,-135,130,,210,222.5,227.5,227.5,,603,82.5,F,Вікторія Посмітна,1966,SBD,Single-ply,Open
2,Kateryna Boroday,81.3,215,230,-240,230,130,137.5,140.5,140.5,,200,212.5,-220,212.5,,583,82.5,F,Катерина Збандут,1983,SBD,Single-ply,Open
3,Yana Petrenko,75.1,195,205,215,215,110,117.5,-122.5,117.5,,202.5,212.5,226,226,-228,558.5,82.5,F,Яна Петренко,1981,SBD,Single-ply,Open
4,Ganna Lytvyn,82.1,220,-227.5,-227.5,220,115,122.5,125,125,,195,-200,,195,,540,82.5,F,Анна Литвин,1983,SBD,Single-ply,Open
5,Natalya Kopylova,78.8,185,192.5,197.5,197.5,125,-130,130,130,,185,195,-200,195,,522.5,82.5,F,Наталя Копилова,1977,SBD,Single-ply,Open
6,Svitlana Chernyavska,82.2,120,130,-140,130,50,-55,-55,50,,130,150,-172.5,150,,330,82.5,F,Світлана Чернявська,1984,SBD,Single-ply,Open
1,Iryna Yavorska,85,-210,210,215,215,135,142.5,147.5,147.5,,220,230,237.5,237.5,,600,90,F,Ірина Яворська,1981,SBD,Single-ply,Open
2,Natalya Polishchuk,89,-200,210,230,230,135,142.5,147.5,147.5,-155.5,200,212.5,220,220,,597.5,90,F,Наталя Поліщук,1978,SBD,Single-ply,Open
3,Inna Orobets,89.65,220,227.5,232.5,232.5,135,142.5,147.5,147.5,,200,212.5,-220,212.5,,592.5,90,F,Інна Оробець,1971,SBD,Single-ply,Open
4,Anna Kravchenko,83.5,160,170,175,175,100,-105,105,105,,160,165,-170,165,,445,90,F,Анна Кравченко,1984,SBD,Single-ply,Open
5,Nadiya Tsyukalo,83.3,155,-167.5,-175,155,70,77.5,-80,77.5,,140,150,-157.5,150,,382.5,90,F,Надія Цюкало,1983,SBD,Single-ply,Open
6,Irina Koloshets,88,120,130,135,135,-80,80,85,85,,140,147.5,152.5,152.5,,372.5,90,F,Ірина Колошець,1977,SBD,Single-ply,Open
1,Viktoriya Olenytsya,114,235,250,-260,250,130,142.5,150,150,,220,235,242.5,242.5,,642.5,90+,F,Вікторія Олениця,1984,SBD,Single-ply,Open
2,Anna Ganenko,104,225,240,-255,240,150,161,-170,161,,190,205,-220,205,,606,90+,F,Анна Ганенко,1975,SBD,Single-ply,Open
3,Anna Zhelyuk,92.5,165,-180,180,180,75,80,85,85,,165,180,195,195,,460,90+,F,Анна Желюк,1982,SBD,Single-ply,Open
4,Galina Kotsaba,97,150,160,167.5,167.5,-107.5,110,115,115,,160,-172.5,177.5,177.5,,460,90+,F,Галина Коцаба,1982,SBD,Single-ply,Open
5,Kateryna Rogova,101.5,135,-150,-150,135,77.5,82.5,85,85,,140,155,162.5,162.5,,382.5,90+,F,Катерина Рогова,1979,SBD,Single-ply,Open
DQ,Olga Leshukova,124.4,-150,-150,-150,,,,,,,,,,,,,90+,F,Ольга Лешукова,1974,SBD,Single-ply,Open
