Name,WeightClassKg,Division,Best3SquatKg,Best3BenchKg,Best3DeadliftKg,TotalKg,Sex,Event,Equipment,Place,State
Chris Welsch,82.5,M-O,206.38,120.2,215.46,542.04,M,SBD,Single-ply,1,
Cameron Miller,82.5,M-T2,24.95,97.52,65.77,188.24,M,SBD,Single-ply,1,
Robert Hanssen,100,M-O,233.6,172.37,285.76,691.73,M,SBD,Single-ply,1,
Rich Kruzsely,100,M-O,238.14,210.92,231.33,680.39,M,SBD,Single-ply,2,
Ron Falcone,100,M-M1,247.21,158.76,210.92,616.89,M,SBD,Single-ply,1,
Wilson Martinez,110,M-M1,238.14,151.95,247.21,637.3,M,SBD,Single-ply,1,
Stan Chatis,110,M-M6,192.78,145.15,229.06,566.99,M,SBD,Single-ply,1,
